Project Prioritization
…
# extract project, action, feature data
projects <- sim_data$projects
actions <- sim_data$actions
features <- sim_data$features

# manually set feature weights for teaching purposes
features$weight <- exp(runif(nrow(features), 1, 15))

# print data
print(projects) # data for conservation projects

# # A tibble: 71 x 73
#    name  success     F1     F2     F3     F4     F5     F6     F7     F8
#    <chr>   <dbl>  <dbl>  <dbl>  <dbl>  <dbl>  <dbl>  <dbl>  <dbl>  <dbl>
#  1 proj…   0.761  0.676 NA     NA     NA     NA     NA      0.858 NA    
#  2 proj…   0.878 NA     NA     NA      0.881 NA     NA      0.548 NA    
#  3 proj…   0.876  0.522  0.818  0.507  0.514  0.661  0.629 NA     NA    
#  4 proj…   0.720  0.716  0.551  0.801  0.812 NA     NA      0.577 NA    
#  5 proj…   0.765  0.806  0.846  0.796  0.842  0.800 NA      0.824 NA    
#  6 proj…   0.975  0.864 NA     NA      0.659  0.670 NA     NA      0.864
#  7 proj…   0.809  0.820  0.639 NA      0.603 NA      0.893  0.526 NA    
#  8 proj…   0.872 NA     NA     NA     NA     NA     NA      0.802 NA    
#  9 proj…   0.941  0.762 NA      0.566  0.536  0.654  0.771  0.549  0.711
# 10 proj…   0.907  0.514  0.735  0.526  0.641  0.710  0.695  0.601  0.517
# # … with 61 more rows, and 63 more variables: F9 <dbl>, F10 <dbl>,
# #   F11 <dbl>, F12 <dbl>, F13 <dbl>, F14 <dbl>, F15 <dbl>, F16 <dbl>,
# #   F17 <dbl>, F18 <dbl>, F19 <dbl>, F20 <dbl>, F21 <dbl>, F22 <dbl>,
# #   F23 <dbl>, F24 <dbl>, F25 <dbl>, F26 <dbl>, F27 <dbl>, F28 <dbl>,
# #   F29 <dbl>, F30 <dbl>, F31 <dbl>, F32 <dbl>, F33 <dbl>, F34 <dbl>,
# #   F35 <dbl>, F36 <dbl>, F37 <dbl>, F38 <dbl>, F39 <dbl>, F40 <dbl>,
# #   action_1 <lgl>, action_2 <lgl>, action_3 <lgl>, action_4 <lgl>,
# #   action_5 <lgl>, action_6 <lgl>, action_7 <lgl>, action_8 <lgl>,
# #   action_9 <lgl>, action_10 <lgl>, action_11 <lgl>, action_12 <lgl>,
# #   action_13 <lgl>, action_14 <lgl>, action_15 <lgl>, action_16 <lgl>,
# #   action_17 <lgl>, action_18 <lgl>, action_19 <lgl>, action_20 <lgl>,
# #   action_21 <lgl>, action_22 <lgl>, action_23 <lgl>, action_24 <lgl>,
# #   action_25 <lgl>, action_26 <lgl>, action_27 <lgl>, action_28 <lgl>,
# #   action_29 <lgl>, action_30 <lgl>, baseline_action <lgl>

print(actions)  # data for management actions

# # A tibble: 31 x 4
#    name       cost locked_in locked_out
#    <chr>     <dbl> <lgl>     <lgl>     
#  1 action_1   97.8 FALSE     FALSE     
#  2 action_2   94.0 FALSE     FALSE     
#  3 action_3  100.  FALSE     FALSE     
#  4 action_4  103.  FALSE     FALSE     
#  5 action_5   96.1 FALSE     FALSE     
#  6 action_6   98.1 FALSE     FALSE     
#  7 action_7   97.6 FALSE     FALSE     
#  8 action_8  104.  FALSE     FALSE     
#  9 action_9   99.9 FALSE     FALSE     
# 10 action_10  93.1 FALSE     FALSE     
# # … with 21 more rows

print(features) # data for biodiversity features

# # A tibble: 40 x 2
#    name      weight
#    <chr>      <dbl>
#  1 F1         28.2 
#  2 F2     640817.  
#  3 F3       1138.  
#  4 F4        100.  
#  5 F5         63.0 
#  6 F6          3.08
#  7 F7       1943.  
#  8 F8    1166467.  
#  9 F9       4103.  
# 10 F10      1476.  
# # … with 30 more rows
…
