Project Prioritization • ppr
…
Now we will simulate a dataset to practice developing project prioritizations. Specifically, we will simulate a dataset for a priority threat management exercise that contains 50 features, 100 projects, and 150 actions.

# simulate data
sim_data <- simulate_ptm_data(number_projects = 100, number_actions = 150,
                              number_features = 50)

# extract project, action, feature data
projects <- sim_data$projects
actions <- sim_data$actions
features <- sim_data$features

# print data
print(projects)

# # A tibble: 101 x 203
#    name  success    F1   F10   F11   F12   F13   F14   F15   F16   F17
#    <chr>   <dbl> <dbl> <dbl> <dbl> <dbl> <dbl> <dbl> <dbl> <dbl> <dbl>
#  1 proj…   0.765 0.798 0.784 0.799 0.583 0.519 0.516 0.819 0.643 0.707
#  2 proj…   0.899 0.791 0.738 0.518 0.650 0.654 0.856 0.841 0.623 0.614
#  3 proj…   0.818 0.681 0.545 0.652 0.846 0.781 0.696 0.850 0.622 0.734
#  4 proj…   0.718 0.858 0.595 0.695 0.825 0.720 0.735 0.662 0.747 0.679
#  5 proj…   0.704 0.727 0.535 0.720 0.821 0.884 0.607 0.882 0.826 0.633
#  6 proj…   0.860 0.581 0.672 0.818 0.629 0.803 0.546 0.555 0.727 0.827
#  7 proj…   0.871 0.524 0.529 0.558 0.581 0.680 0.888 0.847 0.780 0.565
#  8 proj…   0.939 0.577 0.802 0.799 0.864 0.676 0.823 0.574 0.532 0.589
#  9 proj…   0.893 0.803 0.503 0.827 0.587 0.855 0.880 0.830 0.506 0.613
# 10 proj…   0.904 0.634 0.820 0.527 0.766 0.622 0.607 0.528 0.695 0.822
# # … with 91 more rows, and 192 more variables: F18 <dbl>, F19 <dbl>,
# #   F2 <dbl>, F20 <dbl>, F21 <dbl>, F22 <dbl>, F23 <dbl>, F24 <dbl>,
# #   F25 <dbl>, F26 <dbl>, F27 <dbl>, F28 <dbl>, F29 <dbl>, F3 <dbl>,
# #   F30 <dbl>, F31 <dbl>, F32 <dbl>, F33 <dbl>, F34 <dbl>, F35 <dbl>,
# #   F36 <dbl>, F37 <dbl>, F38 <dbl>, F39 <dbl>, F4 <dbl>, F40 <dbl>,
# #   F41 <dbl>, F42 <dbl>, F43 <dbl>, F44 <dbl>, F45 <dbl>, F46 <dbl>,
# #   F47 <dbl>, F48 <dbl>, F49 <dbl>, F5 <dbl>, F50 <dbl>, F6 <dbl>,
# #   F7 <dbl>, F8 <dbl>, F9 <dbl>, action_1 <lgl>, action_2 <lgl>,
# #   action_3 <lgl>, action_4 <lgl>, action_5 <lgl>, action_6 <lgl>,
…
print(actions)

# # A tibble: 151 x 4
#    name       cost locked_in locked_out
#    <chr>     <dbl> <lgl>     <lgl>     
#  1 action_1  105.  FALSE     FALSE     
#  2 action_2  110.  FALSE     FALSE     
#  3 action_3  104.  FALSE     FALSE     
#  4 action_4  100.  FALSE     FALSE     
#  5 action_5  105.  FALSE     FALSE     
#  6 action_6   97.1 FALSE     FALSE     
#  7 action_7  104.  FALSE     FALSE     
#  8 action_8  103.  FALSE     FALSE     
#  9 action_9  100.  FALSE     FALSE     
# 10 action_10 101.  FALSE     FALSE     
# # … with 141 more rows

print(features)

# # A tibble: 50 x 2
#    name     weight
#    <chr>     <dbl>
#  1 F1    0.156    
#  2 F2    0.0106   
#  3 F3    0.0106   
#  4 F4    0.0990   
#  5 F5    0.0143   
#  6 F6    0.0143   
#  7 F7    0.0000913
#  8 F8    0.0000913
#  9 F9    0.00662  
# 10 F10   0.00214  
# # … with 40 more rows
…
