Add a random solver — add_random_solver • oppr
…
# solve problem
s1 <- solve(p1)

# print solutions
print(s1)
#> # A tibble: 100 × 21
#>    solution status   obj  cost F1_action F2_action F3_action F4_action F5_action
#>       <int> <chr>  <dbl> <dbl>     <dbl>     <dbl>     <dbl>     <dbl>     <dbl>
#>  1        1 NA      1.99  194.         1         0         0         0         1
#>  2        2 NA      2.01  194.         1         0         0         1         0
#>  3        3 NA      1.96  198.         1         0         1         0         0
#>  4        4 NA      1.96  198.         1         0         1         0         0
#>  5        5 NA      1.91  199.         0         0         0         1         1
#>  6        6 NA      1.99  194.         1         0         0         0         1
#>  7        7 NA      1.96  198.         1         0         1         0         0
#>  8        8 NA      1.96  198.         1         0         1         0         0
#>  9        9 NA      1.96  198.         1         0         1         0         0
#> 10       10 NA      2.19  195.         1         1         0         0         0
#> # ℹ 90 more rows
#> # ℹ 12 more variables: baseline_action <dbl>, F1_project <dbl>,
#> #   F2_project <dbl>, F3_project <dbl>, F4_project <dbl>, F5_project <dbl>,
#> #   baseline_project <dbl>, F1 <dbl>, F2 <dbl>, F3 <dbl>, F4 <dbl>, F5 <dbl>
…
